{
    "assets": [

    {
        "assetName" : "cube",
        "downloadUrl" : "https://assetdownload.com/dancing-women"
    },
    {
        "assetName" : "capsule",
        "downloadUrl" : "https://assetdownload.com/cat"
    },
    {
        "assetName" : "sphere",
        "downloadUrl" : "https://assetdownload.com/animated-cube"
    }
    ]
}